<svg xmlns="http://www.w3.org/2000/svg" width="16" height="12" viewBox="0 0 16 12">
    <g fill="#81AE50" fill-rule="evenodd">
        <path d="M.226 6.32l1.737-1.737 5.174 5.174-1.738 1.737z"/>
        <path d="M5.737 11.065L4 9.327 13.327 0l1.738 1.737z"/>
    </g>
</svg>
