<svg xmlns="http://www.w3.org/2000/svg" width="22" height="22" viewBox="0 0 22 22">
    <g fill="#444" fill-rule="evenodd">
        <path d="M16 0h6v3h-6zM0 0h6v3H0zM0 19h6v3H0zM16 19h6v3h-6z"/>
        <path d="M19 6V0h3v6zM0 6V0h3v6zM0 22v-6h3v6zM19 22v-6h3v6z"/>
    </g>
</svg>
